[
  {
    "definitions_word_en": "an area or division, especially part of a country or the world having definable characteristics but not always fixed boundaries.",
    "id_lesson": "region_r",
    "definitions_ex_en": "one of the region\u0027s major employers",
    "definitions_ex_vn": "một trong những nhà tuyển dụng lớn của khu vực",
    "definitions_type_word": "noun"
  }
]