[
  {
    "definitions_word_en": "of a color at the end of the spectrum next to orange and opposite violet, as of blood, fire, or rubies.",
    "id_lesson": "red_r",
    "definitions_ex_en": "her red lips",
    "definitions_ex_vn": "Môi đỏ của cô",
    "definitions_type_word": "adjective"
  },
  {
    "definitions_word_en": "stained with blood, or involving bloodshed or violence.",
    "id_lesson": "red_r",
    "definitions_ex_en": "red battle stamps his foot and nations feel the shock",
    "definitions_ex_vn": "Trận chiến đỏ tem chân và các quốc gia cảm thấy sốc",
    "definitions_type_word": "adjective"
  },
  {
    "definitions_word_en": "red color or pigment.",
    "id_lesson": "red_r",
    "definitions_ex_en": "their work is marked in red by the teacher",
    "definitions_ex_vn": "công việc của họ được đánh dấu màu đỏ bởi giáo viên",
    "definitions_type_word": "noun"
  },
  {
    "definitions_word_en": "a red thing.",
    "id_lesson": "red_r",
    "definitions_ex_en": "which dress - the black or the red?",
    "definitions_ex_vn": "Chiếc váy nào - màu đen hay màu đỏ?",
    "definitions_type_word": "noun"
  },
  {
    "definitions_word_en": "the situation of owing money to a bank or making a loss in a business operation.",
    "id_lesson": "red_r",
    "definitions_ex_en": "the company was $4 million in the red",
    "definitions_ex_vn": "Công ty là 4 triệu đô la trong màu đỏ",
    "definitions_type_word": "noun"
  },
  {
    "definitions_word_en": "reduction.",
    "id_lesson": "red_r",
    "definitions_ex_en": "",
    "definitions_ex_vn": "",
    "definitions_type_word": "abbreviation"
  },
  {
    "definitions_word_en": "variant spelling of re- before a vowel (as in redeem, redolent ).",
    "id_lesson": "red_r",
    "definitions_ex_en": "",
    "definitions_ex_vn": "",
    "definitions_type_word": "prefix"
  }
]