[
  {
    "definitions_word_en": "a person or thing that is being discussed, described, or dealt with.",
    "id_lesson": "subject_s",
    "definitions_ex_en": "I\u0027ve said all there is to be said on the subject",
    "definitions_ex_vn": "Tôi đã nói tất cả những gì sẽ được nói về chủ đề này",
    "definitions_type_word": "noun"
  },
  {
    "definitions_word_en": "a branch of knowledge studied or taught in a school, college, or university.",
    "id_lesson": "subject_s",
    "definitions_ex_en": "math is not my best subject",
    "definitions_ex_vn": "Toán học không phải là chủ đề tốt nhất của tôi",
    "definitions_type_word": "noun"
  },
  {
    "definitions_word_en": "a citizen or member of a state other than its supreme ruler.",
    "id_lesson": "subject_s",
    "definitions_ex_en": "the legislation is applicable only to British subjects",
    "definitions_ex_vn": "Pháp luật chỉ áp dụng cho các đối tượng của Anh",
    "definitions_type_word": "noun"
  },
  {
    "definitions_word_en": "a noun phrase functioning as one of the main components of a clause, being the element about which the rest of the clause is predicated.",
    "id_lesson": "subject_s",
    "definitions_ex_en": "",
    "definitions_ex_vn": "",
    "definitions_type_word": "noun"
  },
  {
    "definitions_word_en": "a thinking or feeling entity; the conscious mind; the ego, especially as opposed to anything external to the mind.",
    "id_lesson": "subject_s",
    "definitions_ex_en": "",
    "definitions_ex_vn": "",
    "definitions_type_word": "noun"
  },
  {
    "definitions_word_en": "likely or prone to be affected by (a particular condition or occurrence, typically an unwelcome or unpleasant one).",
    "id_lesson": "subject_s",
    "definitions_ex_en": "he was subject to bouts of manic depression",
    "definitions_ex_vn": "Anh ta chịu những cơn sốt hưng cảm",
    "definitions_type_word": "adjective"
  },
  {
    "definitions_word_en": "dependent or conditional upon.",
    "id_lesson": "subject_s",
    "definitions_ex_en": "the proposed merger is subject to the approval of the shareholders",
    "definitions_ex_vn": "Sáp nhập đề xuất phải được sự chấp thuận của các cổ đông",
    "definitions_type_word": "adjective"
  },
  {
    "definitions_word_en": "under the authority of.",
    "id_lesson": "subject_s",
    "definitions_ex_en": "",
    "definitions_ex_vn": "",
    "definitions_type_word": "adjective"
  },
  {
    "definitions_word_en": "conditionally upon.",
    "id_lesson": "subject_s",
    "definitions_ex_en": "",
    "definitions_ex_vn": "",
    "definitions_type_word": "adverb"
  },
  {
    "definitions_word_en": "cause or force to undergo (a particular experience of form of treatment).",
    "id_lesson": "subject_s",
    "definitions_ex_en": "he\u0027d subjected her to a terrifying ordeal",
    "definitions_ex_vn": "anh ta đã làm cô ấy để một thử thách đáng sợ",
    "definitions_type_word": "verb"
  },
  {
    "definitions_word_en": "bring (a person or country) under one\u0027s control or jurisdiction, typically by using force.",
    "id_lesson": "subject_s",
    "definitions_ex_en": "the city had been subjected to Macedonian rule",
    "definitions_ex_vn": "Thành phố đã phải chịu sự cai trị của người Macedonia",
    "definitions_type_word": "verb"
  }
]