[
  {
    "definitions_word_en": "diminish the worth or value of (a quality or achievement).",
    "id_lesson": "detract_d",
    "definitions_ex_en": "these quibbles in no way detract from her achievement",
    "definitions_ex_vn": "Những dỡ hàng này không có cách nào làm mất đi thành tích của cô ấy",
    "definitions_type_word": "verb"
  },
  {
    "definitions_word_en": "cause someone or something to be distracted or diverted from.",
    "id_lesson": "detract_d",
    "definitions_ex_en": "the complaint was timed to detract attention from the ethics issue",
    "definitions_ex_vn": "Khiếu nại đã được hẹn giờ để gây chú ý từ vấn đề đạo đức",
    "definitions_type_word": "verb"
  }
]