[
  {
    "definitions_word_en": "an exchange of diverging or opposite views, typically a heated or angry one.",
    "id_lesson": "argument_a",
    "definitions_ex_en": "I\u0027ve had an argument with my father",
    "definitions_ex_vn": "Tôi đã có một cuộc tranh cãi với cha tôi",
    "definitions_type_word": "noun"
  },
  {
    "definitions_word_en": "a reason or set of reasons given with the aim of persuading others that an action or idea is right or wrong.",
    "id_lesson": "argument_a",
    "definitions_ex_en": "there is a strong argument for submitting a formal appeal",
    "definitions_ex_vn": "Có một lập luận mạnh mẽ để gửi một kháng cáo chính thức",
    "definitions_type_word": "noun"
  },
  {
    "definitions_word_en": "an independent variable associated with a function and determining the value of the function. For example, in the expression y \u003d F ( x1, x2 ), the arguments of the function F are x 1 and x 2, and the value is y.",
    "id_lesson": "argument_a",
    "definitions_ex_en": "",
    "definitions_ex_vn": "",
    "definitions_type_word": "noun"
  },
  {
    "definitions_word_en": "any of the noun phrases in a clause that are related directly to the verb, typically the subject, direct object, and indirect object.",
    "id_lesson": "argument_a",
    "definitions_ex_en": "",
    "definitions_ex_vn": "",
    "definitions_type_word": "noun"
  },
  {
    "definitions_word_en": "a summary of the subject matter of a book.",
    "id_lesson": "argument_a",
    "definitions_ex_en": "",
    "definitions_ex_vn": "",
    "definitions_type_word": "noun"
  }
]