[
  {
    "definitions_word_en": "dispute or bargain persistently, especially over the cost of something.",
    "id_lesson": "haggle_h",
    "definitions_ex_en": "the two sides are haggling over television rights",
    "definitions_ex_vn": "Hai bên đang haggling qua các quyền truyền hình",
    "definitions_type_word": "verb"
  },
  {
    "definitions_word_en": "a period of persistent bargaining.",
    "id_lesson": "haggle_h",
    "definitions_ex_en": "an inevitable and lengthy haggle over compensation",
    "definitions_ex_vn": "một sự không thể tránh khỏi và kéo dài sự bồi thường trên bồi thường",
    "definitions_type_word": "noun"
  }
]