[
  {
    "definitions_word_en": "a strong feeling of annoyance, displeasure, or hostility.",
    "id_lesson": "anger_a",
    "definitions_ex_en": "the colonel\u0027s anger at his daughter\u0027s disobedience",
    "definitions_ex_vn": "Sự tức giận của Đại tá tại sự bất tuân của con gái mình",
    "definitions_type_word": "noun"
  },
  {
    "definitions_word_en": "fill (someone) with anger; provoke anger in.",
    "id_lesson": "anger_a",
    "definitions_ex_en": "she was angered by his terse answer",
    "definitions_ex_vn": "Cô ấy tức giận vì câu trả lời ngắn gọn của anh ấy",
    "definitions_type_word": "verb"
  }
]