[
  {
    "definitions_word_en": "an outstanding part of an event or period of time.",
    "id_lesson": "highlight_h",
    "definitions_ex_en": "he views that season as the highlight of his career",
    "definitions_ex_vn": "Anh ấy xem mùa đó là điểm nhấn trong sự nghiệp của mình",
    "definitions_type_word": "noun"
  },
  {
    "definitions_word_en": "a bright or reflective area in a painting, picture, or design.",
    "id_lesson": "highlight_h",
    "definitions_ex_en": "",
    "definitions_ex_vn": "",
    "definitions_type_word": "noun"
  },
  {
    "definitions_word_en": "pick out and emphasize.",
    "id_lesson": "highlight_h",
    "definitions_ex_en": "the issues highlighted by the report",
    "definitions_ex_vn": "Các vấn đề được nhấn mạnh bởi báo cáo",
    "definitions_type_word": "verb"
  },
  {
    "definitions_word_en": "create highlights in (hair).",
    "id_lesson": "highlight_h",
    "definitions_ex_en": "I\u0027ve had my hair highlighted regularly for the last ten years",
    "definitions_ex_vn": "Tôi đã có mái tóc được nhấn mạnh thường xuyên trong mười năm qua",
    "definitions_type_word": "verb"
  }
]