[
  {
    "definitions_word_en": "gain or acquire knowledge of or skill in (something) by study, experience, or being taught.",
    "id_lesson": "learn_l",
    "definitions_ex_en": "they\u0027d started learning French",
    "definitions_ex_vn": "Họ đã bắt đầu học tiếng Pháp",
    "definitions_type_word": "verb"
  },
  {
    "definitions_word_en": "teach (someone).",
    "id_lesson": "learn_l",
    "definitions_ex_en": "“That\u0027ll learn you,” he chuckled",
    "definitions_ex_vn": "\"Điều đó sẽ học bạn,\" anh cười thầm",
    "definitions_type_word": "verb"
  }
]