[
  {
    "definitions_word_en": "the study of past events, particularly in human affairs.",
    "id_lesson": "history_h",
    "definitions_ex_en": "medieval European history",
    "definitions_ex_vn": "lịch sử châu Âu thời trung cổ",
    "definitions_type_word": "noun"
  },
  {
    "definitions_word_en": "the whole series of past events connected with someone or something.",
    "id_lesson": "history_h",
    "definitions_ex_en": "the history of Aegean painting",
    "definitions_ex_vn": "lịch sử của bức tranh Aegean",
    "definitions_type_word": "noun"
  },
  {
    "definitions_word_en": "a continuous, typically chronological, record of important or public events or of a particular trend or institution.",
    "id_lesson": "history_h",
    "definitions_ex_en": "a history of the labor movement",
    "definitions_ex_vn": "một lịch sử của phong trào lao động",
    "definitions_type_word": "noun"
  },
  {
    "definitions_word_en": "a record kept by a web browser of the web pages and other files it has been used to access.",
    "id_lesson": "history_h",
    "definitions_ex_en": "",
    "definitions_ex_vn": "",
    "definitions_type_word": "noun"
  }
]