[
  {
    "definitions_word_en": "arranged in a systematic way, especially on a large scale.",
    "id_lesson": "organized_o",
    "definitions_ex_en": "organized crime",
    "definitions_ex_vn": "tội phạm có tổ chức",
    "definitions_type_word": "adjective"
  }
]