[
  {
    "definitions_word_en": "(of light or color) very bright and radiant.",
    "id_lesson": "brilliant_b",
    "definitions_ex_en": "brilliant sunshine illuminated the scene",
    "definitions_ex_vn": "ánh nắng rực rỡ chiếu sáng cảnh",
    "definitions_type_word": "adjective"
  },
  {
    "definitions_word_en": "exceptionally clever or talented.",
    "id_lesson": "brilliant_b",
    "definitions_ex_en": "a brilliant young mathematician",
    "definitions_ex_vn": "một nhà toán học trẻ rực rỡ",
    "definitions_type_word": "adjective"
  },
  {
    "definitions_word_en": "a diamond of brilliant cut.",
    "id_lesson": "brilliant_b",
    "definitions_ex_en": "an elegant necklace with four rows of brilliants",
    "definitions_ex_vn": "một chiếc vòng cổ thanh lịch với bốn hàng của Brilliants",
    "definitions_type_word": "noun"
  }
]