[
  {
    "definitions_word_en": "try earnestly or persistently to persuade (someone) to do something.",
    "id_lesson": "urge_u",
    "definitions_ex_en": "he urged her to come and stay with us",
    "definitions_ex_vn": "Anh giục cô đến và ở lại với chúng tôi",
    "definitions_type_word": "verb"
  },
  {
    "definitions_word_en": "a strong desire or impulse.",
    "id_lesson": "urge_u",
    "definitions_ex_en": "the urge for revenge",
    "definitions_ex_vn": "sự thôi thúc trả thù",
    "definitions_type_word": "noun"
  }
]